{
  "artists": [
    {
      "id": 1,
      "artistName": "Dream Theater",
      "activeSince": "1990",
      "retired": "",
      "musicians": [
        {
          "musicianName": "John Petrucci",
          "instrument": "Guitar",
          "yearJoined": 1991,
          "yearLeft": ""
        },
        {
          "musicianName": "John Myung",
          "instrument": "Bass",
          "yearJoined": 1991,
          "yearLeft": ""
        },
        {
          "musicianName": "Jordan Rudess",
          "instrument": "Keyboard",
          "yearJoined": 1999,
          "yearLeft": ""
        },
        {
          "musicianName": "Mike Mangini",
          "instrument": "Drums",
          "yearJoined": 2015,
          "yearLeft": ""
        },
        {
          "musicianName": "James LaBrie",
          "instrument": "Vocals",
          "yearJoined": 1991,
          "yearLeft": ""
        }
      ]
    },
    {
      "artistName": "Pain of Salvation",
      "activeSince": "2004",
      "retired": "",
      "musicians": [
        {
          "musicianName": "Bo Halverson",
          "instrument": "Vocals",
          "yearJoined": 2004,
          "yearLeft": ""
        }
      ],
      "id": 2
    },
    {
      "artistName": "Genesis",
      "activeSince": "1973",
      "retired": true,
      "musicians": [
        {
          "musicianName": "Phil Collins",
          "instrument": "Drums / Vocals",
          "yearJoined": 1973,
          "yearLeft": ""
        }
      ],
      "id": 3
    },
    {
      "id": 4,
      "artistName": "Frank Zappa",
      "activeSince": "1964",
      "retired": true,
      "musicians": [
        {
          "musicianName": "Frank Zappa",
          "instrument": "Guitar",
          "yearJoined": 1967,
          "yearLeft": ""
        }
      ]
    },
    {
      "id": 5,
      "artistName": "Dr. Drea",
      "activeSince": "2019",
      "retired": "",
      "musicians": []
    }
  ],
  "albums": [
    {
      "id": 2,
      "artist": "Dream Theater",
      "albumName": "Scenes From a Memory",
      "albumYear": 1999,
      "genre": "",
      "rating": "5",
      "discs": [
        {
          "discNumber": 0,
          "songs": [
            {
              "trackNumber": "",
              "artist": "",
              "name": "Regression",
              "length": "02:06",
              "rating": ""
            },
            {
              "trackNumber": "",
              "artist": "",
              "name": "Overture",
              "length": "03:37",
              "rating": ""
            },
            {
              "trackNumber": "",
              "artist": "",
              "name": "Strange Deja Vu",
              "length": "05:12",
              "rating": ""
            },
            {
              "trackNumber": "",
              "artist": "",
              "name": "Through My Words",
              "length": "01:02",
              "rating": ""
            },
            {
              "trackNumber": "",
              "artist": "",
              "name": "Fatal Tragedy",
              "length": "06:49",
              "rating": ""
            },
            {
              "trackNumber": "",
              "artist": "",
              "name": "Beyond This Life",
              "length": "11:22",
              "rating": ""
            },
            {
              "trackNumber": "",
              "artist": "",
              "name": "Through Her Eyes",
              "length": "05:29",
              "rating": ""
            },
            {
              "trackNumber": "",
              "artist": "",
              "name": "Home",
              "length": "12:53",
              "rating": ""
            },
            {
              "trackNumber": "",
              "artist": "",
              "name": "Dance Of Eternity",
              "length": "06:13",
              "rating": ""
            },
            {
              "trackNumber": "",
              "artist": "",
              "name": "One Last Time",
              "length": "03:46",
              "rating": ""
            },
            {
              "trackNumber": "",
              "artist": "",
              "name": "Finally Free",
              "length": "11:59",
              "rating": ""
            }
          ]
        }
      ]
    },
    {
      "id": 3,
      "artist": "Pain of Salvation",
      "albumName": "The Perfect Element Part I",
      "albumYear": 2000,
      "genre": null,
      "rating": "5",
      "discs": [
        {
          "discNumber": 0,
          "songs": [
            {
              "trackNumber": "",
              "artist": "",
              "name": "Used",
              "length": "05:23",
              "rating": ""
            },
            {
              "trackNumber": "",
              "artist": "",
              "name": "In The Flesh",
              "length": "08:36",
              "rating": ""
            },
            {
              "trackNumber": "",
              "artist": "",
              "name": "Ashes",
              "length": "04:28",
              "rating": ""
            },
            {
              "trackNumber": "",
              "artist": "",
              "name": "Morning On Earth",
              "length": "04:34",
              "rating": ""
            },
            {
              "trackNumber": "",
              "artist": "",
              "name": "Idioglossia",
              "length": "08:29",
              "rating": ""
            },
            {
              "trackNumber": "",
              "artist": "",
              "name": "Her Voices",
              "length": "07:56",
              "rating": ""
            },
            {
              "trackNumber": "",
              "artist": "",
              "name": "Dedication",
              "length": "04:00",
              "rating": ""
            },
            {
              "trackNumber": "",
              "artist": "",
              "name": "Kinf of Loss",
              "length": "09:46",
              "rating": ""
            },
            {
              "trackNumber": "",
              "artist": "",
              "name": "Reconcilliation",
              "length": "04:24",
              "rating": ""
            },
            {
              "trackNumber": "",
              "artist": "",
              "name": "Song For the Innocent",
              "length": "03:02",
              "rating": ""
            },
            {
              "trackNumber": "",
              "artist": "",
              "name": "Falling",
              "length": "01:50",
              "rating": ""
            },
            {
              "trackNumber": "",
              "artist": "",
              "name": "The Perfect Element",
              "length": "10:09",
              "rating": ""
            }
          ]
        }
      ]
    },
    {
      "id": 4,
      "artist": "Genesis",
      "albumName": "Invisible Touch",
      "albumYear": 1986,
      "genre": "",
      "rating": "4",
      "discs": [
        {
          "discNumber": 0,
          "songs": [
            {
              "trackNumber": "",
              "artist": "",
              "name": "Invisible Touch",
              "length": "03:29",
              "rating": ""
            },
            {
              "trackNumber": "",
              "artist": "",
              "name": "Tonight, tonicht, tonight",
              "length": "08:49",
              "rating": ""
            },
            {
              "trackNumber": "",
              "artist": "",
              "name": "Land of Confusion",
              "length": "04:46",
              "rating": ""
            },
            {
              "trackNumber": "",
              "artist": "",
              "name": "In Too Deep",
              "length": "04:59",
              "rating": ""
            },
            {
              "trackNumber": "",
              "artist": "",
              "name": "Anything She Does",
              "length": "04:06",
              "rating": ""
            },
            {
              "trackNumber": "",
              "artist": "",
              "name": "Domino",
              "length": "10:42",
              "rating": ""
            },
            {
              "trackNumber": "",
              "artist": "",
              "name": "Throwing It All Away",
              "length": "03:51",
              "rating": ""
            },
            {
              "trackNumber": "",
              "artist": "",
              "name": "The Brazillian",
              "length": "04:49",
              "rating": ""
            }
          ]
        }
      ]
    }
  ]
}